32 23.2896
32 23.8433
16 23.9566
16 23.8694
28 24.9045
20 24.8055
20 24.9717
24 25.0544
24 24.985
28 24.7389
8 25.2349
4 25.5082
28 25.381
32 26.1434
32 26.8221
20 26.2652
20 26.1897
20 26.5263
8 26.3733
12 26.7293
4 27.0052
24 27.579
28 27.8966
8 28.1516
4 28.3306
12 28.7177
12 28.1072
16 28.85
28 29.1359
4 29.2301
32 29.0489
24 30.2769
24 30.8486
16 31.355
4 31.9916
12 32.4261
16 33.9648
1 35.2567
8 35.3476
1 35.606
1 35.6775
8 36.7619
1 36.9867
12 36.9207
1 37.0898