20 1.87406
28 1.86192
24 1.92487
16 2.0326
16 2.06909
32 2.01205
32 2.03048
20 2.08826
16 2.10149
28 2.03651
24 2.13517
24 2.14508
8 2.19879
32 2.11004
24 2.17765
32 2.19755
12 2.24122
12 2.35449
28 2.21047
16 2.30768
12 2.28125
16 2.3447
8 2.45121
20 1.93916
28 1.99727
4 2.05897
20 2.04135
8 2.07364
8 2.16394
1 1.90771
4 1.91356
4 1.91373
1 1.91933
4 1.90292
32 2.11888
1 1.99777
4 1.99712
1 2.00108
12 2.25225
20 1.9667
24 1.95502
28 1.98207
8 2.45808
12 2.50862
1 2.56446